^C:\USERS\BIGGY1606\DOCUMENTS\GITLAB\RAFPRO\RAFAL\RAFAL\PCH.CPP
C:\USERS\BIGGY1606\DOCUMENTS\GITLAB\RAFPRO\RAFAL\RAFAL\DEBUG\RAFAL.PCH
C:\USERS\BIGGY1606\DOCUMENTS\GITLAB\RAFPRO\RAFAL\RAFAL\DEBUG\VC141.PDB
C:\USERS\BIGGY1606\DOCUMENTS\GITLAB\RAFPRO\RAFAL\RAFAL\DEBUG\VC141.IDB
C:\USERS\BIGGY1606\DOCUMENTS\GITLAB\RAFPRO\RAFAL\RAFAL\DEBUG\PCH.OBJ
^C:\USERS\BIGGY1606\DOCUMENTS\GITLAB\RAFPRO\RAFAL\RAFAL\RAFAL.CPP
C:\USERS\BIGGY1606\DOCUMENTS\GITLAB\RAFPRO\RAFAL\RAFAL\DEBUG\VC141.PDB
C:\USERS\BIGGY1606\DOCUMENTS\GITLAB\RAFPRO\RAFAL\RAFAL\DEBUG\VC141.IDB
C:\USERS\BIGGY1606\DOCUMENTS\GITLAB\RAFPRO\RAFAL\RAFAL\DEBUG\RAFAL.OBJ
