^C:\USERS\BIGGY1606\DOCUMENTS\GITLAB\RAFPRO\RAFAL\RAFAL\DEBUG\PCH.OBJ|C:\USERS\BIGGY1606\DOCUMENTS\GITLAB\RAFPRO\RAFAL\RAFAL\DEBUG\RAFAL.OBJ
C:\USERS\BIGGY1606\DOCUMENTS\GITLAB\RAFPRO\RAFAL\DEBUG\RAFAL.ILK
C:\USERS\BIGGY1606\DOCUMENTS\GITLAB\RAFPRO\RAFAL\DEBUG\RAFAL.EXE
C:\USERS\BIGGY1606\DOCUMENTS\GITLAB\RAFPRO\RAFAL\DEBUG\RAFAL.PDB
